<?xml version="1.0" encoding="UTF-8"?>
<testng-results skipped="0" failed="0" ignored="0" total="30" passed="30">
  <reporter-output>
  </reporter-output>
  <suite name="Command line suite" duration-ms="86463" started-at="2018-05-15T10:44:03Z" finished-at="2018-05-15T10:45:30Z">
    <groups>
    </groups>
    <test name="Command line test" duration-ms="86463" started-at="2018-05-15T10:44:03Z" finished-at="2018-05-15T10:45:30Z">
      <class name="com.urbanladder.tests.DeliverySLATest">
        <test-method status="PASS" signature="testSLAApi([Ljava.lang.Object;)[pri:0, instance:com.urbanladder.tests.DeliverySLATest@100fc185]" name="testSLAApi" duration-ms="6825" started-at="2018-05-15T10:44:04Z" data-provider="ApiData" finished-at="2018-05-15T10:44:11Z">
          <params>
            <param index="0">
              <value>
                <![CDATA[[Ljava.lang.Object;@5fcd1c5f]]>
              </value>
            </param>
          </params>
          <reporter-output>
          </reporter-output>
        </test-method> <!-- testSLAApi -->
        <test-method status="PASS" signature="testSLAApi([Ljava.lang.Object;)[pri:0, instance:com.urbanladder.tests.DeliverySLATest@100fc185]" name="testSLAApi" duration-ms="4389" started-at="2018-05-15T10:44:11Z" data-provider="ApiData" finished-at="2018-05-15T10:44:15Z">
          <params>
            <param index="0">
              <value>
                <![CDATA[[Ljava.lang.Object;@3cc30dee]]>
              </value>
            </param>
          </params>
          <reporter-output>
          </reporter-output>
        </test-method> <!-- testSLAApi -->
        <test-method status="PASS" signature="testSLAApi([Ljava.lang.Object;)[pri:0, instance:com.urbanladder.tests.DeliverySLATest@100fc185]" name="testSLAApi" duration-ms="4330" started-at="2018-05-15T10:44:15Z" data-provider="ApiData" finished-at="2018-05-15T10:44:19Z">
          <params>
            <param index="0">
              <value>
                <![CDATA[[Ljava.lang.Object;@7d528cf7]]>
              </value>
            </param>
          </params>
          <reporter-output>
          </reporter-output>
        </test-method> <!-- testSLAApi -->
        <test-method status="PASS" signature="testSLAApi([Ljava.lang.Object;)[pri:0, instance:com.urbanladder.tests.DeliverySLATest@100fc185]" name="testSLAApi" duration-ms="4040" started-at="2018-05-15T10:44:19Z" data-provider="ApiData" finished-at="2018-05-15T10:44:24Z">
          <params>
            <param index="0">
              <value>
                <![CDATA[[Ljava.lang.Object;@6dee8ae6]]>
              </value>
            </param>
          </params>
          <reporter-output>
          </reporter-output>
        </test-method> <!-- testSLAApi -->
        <test-method status="PASS" signature="testSLAApi([Ljava.lang.Object;)[pri:0, instance:com.urbanladder.tests.DeliverySLATest@100fc185]" name="testSLAApi" duration-ms="3997" started-at="2018-05-15T10:44:24Z" data-provider="ApiData" finished-at="2018-05-15T10:44:28Z">
          <params>
            <param index="0">
              <value>
                <![CDATA[[Ljava.lang.Object;@5af64ce0]]>
              </value>
            </param>
          </params>
          <reporter-output>
          </reporter-output>
        </test-method> <!-- testSLAApi -->
        <test-method status="PASS" signature="testSLAApi([Ljava.lang.Object;)[pri:0, instance:com.urbanladder.tests.DeliverySLATest@100fc185]" name="testSLAApi" duration-ms="3707" started-at="2018-05-15T10:44:28Z" data-provider="ApiData" finished-at="2018-05-15T10:44:31Z">
          <params>
            <param index="0">
              <value>
                <![CDATA[[Ljava.lang.Object;@7e7e962d]]>
              </value>
            </param>
          </params>
          <reporter-output>
          </reporter-output>
        </test-method> <!-- testSLAApi -->
        <test-method status="PASS" signature="testSLAApi([Ljava.lang.Object;)[pri:0, instance:com.urbanladder.tests.DeliverySLATest@100fc185]" name="testSLAApi" duration-ms="3767" started-at="2018-05-15T10:44:31Z" data-provider="ApiData" finished-at="2018-05-15T10:44:35Z">
          <params>
            <param index="0">
              <value>
                <![CDATA[[Ljava.lang.Object;@17229821]]>
              </value>
            </param>
          </params>
          <reporter-output>
          </reporter-output>
        </test-method> <!-- testSLAApi -->
        <test-method status="PASS" signature="testSLAApi([Ljava.lang.Object;)[pri:0, instance:com.urbanladder.tests.DeliverySLATest@100fc185]" name="testSLAApi" duration-ms="4917" started-at="2018-05-15T10:44:35Z" data-provider="ApiData" finished-at="2018-05-15T10:44:40Z">
          <params>
            <param index="0">
              <value>
                <![CDATA[[Ljava.lang.Object;@e829999]]>
              </value>
            </param>
          </params>
          <reporter-output>
          </reporter-output>
        </test-method> <!-- testSLAApi -->
        <test-method status="PASS" signature="testSLAApi([Ljava.lang.Object;)[pri:0, instance:com.urbanladder.tests.DeliverySLATest@100fc185]" name="testSLAApi" duration-ms="1735" started-at="2018-05-15T10:44:40Z" data-provider="ApiData" finished-at="2018-05-15T10:44:42Z">
          <params>
            <param index="0">
              <value>
                <![CDATA[[Ljava.lang.Object;@66fb45e5]]>
              </value>
            </param>
          </params>
          <reporter-output>
          </reporter-output>
        </test-method> <!-- testSLAApi -->
        <test-method status="PASS" signature="testSLAApi([Ljava.lang.Object;)[pri:0, instance:com.urbanladder.tests.DeliverySLATest@100fc185]" name="testSLAApi" duration-ms="1745" started-at="2018-05-15T10:44:42Z" data-provider="ApiData" finished-at="2018-05-15T10:44:43Z">
          <params>
            <param index="0">
              <value>
                <![CDATA[[Ljava.lang.Object;@6cbe68e9]]>
              </value>
            </param>
          </params>
          <reporter-output>
          </reporter-output>
        </test-method> <!-- testSLAApi -->
      </class> <!-- com.urbanladder.tests.DeliverySLATest -->
      <class name="com.urbanladder.tests.GetOrderApiTest">
        <test-method status="PASS" signature="testOrderApi([Ljava.lang.Object;)[pri:0, instance:com.urbanladder.tests.GetOrderApiTest@643b1d11]" name="testOrderApi" duration-ms="2137" started-at="2018-05-15T10:44:43Z" data-provider="ApiData1" finished-at="2018-05-15T10:44:46Z">
          <params>
            <param index="0">
              <value>
                <![CDATA[[Ljava.lang.Object;@76e90da5]]>
              </value>
            </param>
          </params>
          <reporter-output>
          </reporter-output>
        </test-method> <!-- testOrderApi -->
        <test-method status="PASS" signature="testOrderApi([Ljava.lang.Object;)[pri:0, instance:com.urbanladder.tests.GetOrderApiTest@643b1d11]" name="testOrderApi" duration-ms="1943" started-at="2018-05-15T10:44:46Z" data-provider="ApiData1" finished-at="2018-05-15T10:44:47Z">
          <params>
            <param index="0">
              <value>
                <![CDATA[[Ljava.lang.Object;@4e3e11b9]]>
              </value>
            </param>
          </params>
          <reporter-output>
          </reporter-output>
        </test-method> <!-- testOrderApi -->
        <test-method status="PASS" signature="testOrderApi([Ljava.lang.Object;)[pri:0, instance:com.urbanladder.tests.GetOrderApiTest@643b1d11]" name="testOrderApi" duration-ms="2153" started-at="2018-05-15T10:44:47Z" data-provider="ApiData1" finished-at="2018-05-15T10:44:50Z">
          <params>
            <param index="0">
              <value>
                <![CDATA[[Ljava.lang.Object;@67cffead]]>
              </value>
            </param>
          </params>
          <reporter-output>
          </reporter-output>
        </test-method> <!-- testOrderApi -->
        <test-method status="PASS" signature="testOrderApi([Ljava.lang.Object;)[pri:0, instance:com.urbanladder.tests.GetOrderApiTest@643b1d11]" name="testOrderApi" duration-ms="2051" started-at="2018-05-15T10:44:50Z" data-provider="ApiData1" finished-at="2018-05-15T10:44:52Z">
          <params>
            <param index="0">
              <value>
                <![CDATA[[Ljava.lang.Object;@214beff9]]>
              </value>
            </param>
          </params>
          <reporter-output>
          </reporter-output>
        </test-method> <!-- testOrderApi -->
        <test-method status="PASS" signature="testOrderApi([Ljava.lang.Object;)[pri:0, instance:com.urbanladder.tests.GetOrderApiTest@643b1d11]" name="testOrderApi" duration-ms="2044" started-at="2018-05-15T10:44:52Z" data-provider="ApiData1" finished-at="2018-05-15T10:44:54Z">
          <params>
            <param index="0">
              <value>
                <![CDATA[[Ljava.lang.Object;@1ff15a50]]>
              </value>
            </param>
          </params>
          <reporter-output>
          </reporter-output>
        </test-method> <!-- testOrderApi -->
        <test-method status="PASS" signature="testOrderApi([Ljava.lang.Object;)[pri:0, instance:com.urbanladder.tests.GetOrderApiTest@643b1d11]" name="testOrderApi" duration-ms="1839" started-at="2018-05-15T10:44:54Z" data-provider="ApiData1" finished-at="2018-05-15T10:44:56Z">
          <params>
            <param index="0">
              <value>
                <![CDATA[[Ljava.lang.Object;@217c23ce]]>
              </value>
            </param>
          </params>
          <reporter-output>
          </reporter-output>
        </test-method> <!-- testOrderApi -->
        <test-method status="PASS" signature="testOrderApi([Ljava.lang.Object;)[pri:0, instance:com.urbanladder.tests.GetOrderApiTest@643b1d11]" name="testOrderApi" duration-ms="2150" started-at="2018-05-15T10:44:56Z" data-provider="ApiData1" finished-at="2018-05-15T10:44:58Z">
          <params>
            <param index="0">
              <value>
                <![CDATA[[Ljava.lang.Object;@39de9bda]]>
              </value>
            </param>
          </params>
          <reporter-output>
          </reporter-output>
        </test-method> <!-- testOrderApi -->
        <test-method status="PASS" signature="testOrderApi([Ljava.lang.Object;)[pri:0, instance:com.urbanladder.tests.GetOrderApiTest@643b1d11]" name="testOrderApi" duration-ms="1959" started-at="2018-05-15T10:44:58Z" data-provider="ApiData1" finished-at="2018-05-15T10:45:00Z">
          <params>
            <param index="0">
              <value>
                <![CDATA[[Ljava.lang.Object;@47148f3f]]>
              </value>
            </param>
          </params>
          <reporter-output>
          </reporter-output>
        </test-method> <!-- testOrderApi -->
        <test-method status="PASS" signature="testOrderApi([Ljava.lang.Object;)[pri:0, instance:com.urbanladder.tests.GetOrderApiTest@643b1d11]" name="testOrderApi" duration-ms="2037" started-at="2018-05-15T10:45:00Z" data-provider="ApiData1" finished-at="2018-05-15T10:45:02Z">
          <params>
            <param index="0">
              <value>
                <![CDATA[[Ljava.lang.Object;@52226e57]]>
              </value>
            </param>
          </params>
          <reporter-output>
          </reporter-output>
        </test-method> <!-- testOrderApi -->
        <test-method status="PASS" signature="testOrderApi([Ljava.lang.Object;)[pri:0, instance:com.urbanladder.tests.GetOrderApiTest@643b1d11]" name="testOrderApi" duration-ms="2353" started-at="2018-05-15T10:45:02Z" data-provider="ApiData1" finished-at="2018-05-15T10:45:04Z">
          <params>
            <param index="0">
              <value>
                <![CDATA[[Ljava.lang.Object;@1200458e]]>
              </value>
            </param>
          </params>
          <reporter-output>
          </reporter-output>
        </test-method> <!-- testOrderApi -->
      </class> <!-- com.urbanladder.tests.GetOrderApiTest -->
      <class name="com.urbanladder.tests.PostCartApiTest">
        <test-method status="PASS" signature="testCartApi([Ljava.lang.Object;)[pri:0, instance:com.urbanladder.tests.PostCartApiTest@2ef5e5e3]" name="testCartApi" duration-ms="1318" started-at="2018-05-15T10:45:04Z" data-provider="ApiData" finished-at="2018-05-15T10:45:05Z">
          <params>
            <param index="0">
              <value>
                <![CDATA[[Ljava.lang.Object;@2cd388f5]]>
              </value>
            </param>
          </params>
          <reporter-output>
          </reporter-output>
        </test-method> <!-- testCartApi -->
        <test-method status="PASS" signature="testCartApi([Ljava.lang.Object;)[pri:0, instance:com.urbanladder.tests.PostCartApiTest@2ef5e5e3]" name="testCartApi" duration-ms="1525" started-at="2018-05-15T10:45:05Z" data-provider="ApiData" finished-at="2018-05-15T10:45:07Z">
          <params>
            <param index="0">
              <value>
                <![CDATA[[Ljava.lang.Object;@4640195a]]>
              </value>
            </param>
          </params>
          <reporter-output>
          </reporter-output>
        </test-method> <!-- testCartApi -->
        <test-method status="PASS" signature="testCartApi([Ljava.lang.Object;)[pri:0, instance:com.urbanladder.tests.PostCartApiTest@2ef5e5e3]" name="testCartApi" duration-ms="2651" started-at="2018-05-15T10:45:07Z" data-provider="ApiData" finished-at="2018-05-15T10:45:10Z">
          <params>
            <param index="0">
              <value>
                <![CDATA[[Ljava.lang.Object;@70d77826]]>
              </value>
            </param>
          </params>
          <reporter-output>
          </reporter-output>
        </test-method> <!-- testCartApi -->
        <test-method status="PASS" signature="testCartApi([Ljava.lang.Object;)[pri:0, instance:com.urbanladder.tests.PostCartApiTest@2ef5e5e3]" name="testCartApi" duration-ms="3094" started-at="2018-05-15T10:45:10Z" data-provider="ApiData" finished-at="2018-05-15T10:45:13Z">
          <params>
            <param index="0">
              <value>
                <![CDATA[[Ljava.lang.Object;@7f323b3a]]>
              </value>
            </param>
          </params>
          <reporter-output>
          </reporter-output>
        </test-method> <!-- testCartApi -->
        <test-method status="PASS" signature="testCartApi([Ljava.lang.Object;)[pri:0, instance:com.urbanladder.tests.PostCartApiTest@2ef5e5e3]" name="testCartApi" duration-ms="2360" started-at="2018-05-15T10:45:13Z" data-provider="ApiData" finished-at="2018-05-15T10:45:15Z">
          <params>
            <param index="0">
              <value>
                <![CDATA[[Ljava.lang.Object;@4f169009]]>
              </value>
            </param>
          </params>
          <reporter-output>
          </reporter-output>
        </test-method> <!-- testCartApi -->
        <test-method status="PASS" signature="testCartApi([Ljava.lang.Object;)[pri:0, instance:com.urbanladder.tests.PostCartApiTest@2ef5e5e3]" name="testCartApi" duration-ms="3373" started-at="2018-05-15T10:45:15Z" data-provider="ApiData" finished-at="2018-05-15T10:45:18Z">
          <params>
            <param index="0">
              <value>
                <![CDATA[[Ljava.lang.Object;@9dada78]]>
              </value>
            </param>
          </params>
          <reporter-output>
          </reporter-output>
        </test-method> <!-- testCartApi -->
        <test-method status="PASS" signature="testCartApi([Ljava.lang.Object;)[pri:0, instance:com.urbanladder.tests.PostCartApiTest@2ef5e5e3]" name="testCartApi" duration-ms="2591" started-at="2018-05-15T10:45:18Z" data-provider="ApiData" finished-at="2018-05-15T10:45:21Z">
          <params>
            <param index="0">
              <value>
                <![CDATA[[Ljava.lang.Object;@4207852d]]>
              </value>
            </param>
          </params>
          <reporter-output>
          </reporter-output>
        </test-method> <!-- testCartApi -->
        <test-method status="PASS" signature="testCartApi([Ljava.lang.Object;)[pri:0, instance:com.urbanladder.tests.PostCartApiTest@2ef5e5e3]" name="testCartApi" duration-ms="2831" started-at="2018-05-15T10:45:21Z" data-provider="ApiData" finished-at="2018-05-15T10:45:24Z">
          <params>
            <param index="0">
              <value>
                <![CDATA[[Ljava.lang.Object;@2c829dbc]]>
              </value>
            </param>
          </params>
          <reporter-output>
          </reporter-output>
        </test-method> <!-- testCartApi -->
        <test-method status="PASS" signature="testCartApi([Ljava.lang.Object;)[pri:0, instance:com.urbanladder.tests.PostCartApiTest@2ef5e5e3]" name="testCartApi" duration-ms="2876" started-at="2018-05-15T10:45:24Z" data-provider="ApiData" finished-at="2018-05-15T10:45:27Z">
          <params>
            <param index="0">
              <value>
                <![CDATA[[Ljava.lang.Object;@57efc6fd]]>
              </value>
            </param>
          </params>
          <reporter-output>
          </reporter-output>
        </test-method> <!-- testCartApi -->
        <test-method status="PASS" signature="testCartApi([Ljava.lang.Object;)[pri:0, instance:com.urbanladder.tests.PostCartApiTest@2ef5e5e3]" name="testCartApi" duration-ms="2867" started-at="2018-05-15T10:45:27Z" data-provider="ApiData" finished-at="2018-05-15T10:45:30Z">
          <params>
            <param index="0">
              <value>
                <![CDATA[[Ljava.lang.Object;@839df62]]>
              </value>
            </param>
          </params>
          <reporter-output>
          </reporter-output>
        </test-method> <!-- testCartApi -->
      </class> <!-- com.urbanladder.tests.PostCartApiTest -->
    </test> <!-- Command line test -->
  </suite> <!-- Command line suite -->
</testng-results>
