/Users/rachitsharma/Desktop/newApiTesting1/urbanladder/src/test/java/com/urbanladder/tests/PostCartApiTest.java
/Users/rachitsharma/Desktop/newApiTesting1/urbanladder/src/test/java/com/urbanladder/tests/GetOrderApiTest.java
/Users/rachitsharma/Desktop/newApiTesting1/urbanladder/src/test/java/com/urbanladder/tests/DeliverySLATest.java
